…
mg_options <- meteogalicia_options(resolution = 'current_day')
get_meteo_from('meteogalicia', mg_options)
#> ℹ A información divulgada a través deste servidor ofrécese gratuitamente aos cidadáns para que poida ser
#> utilizada libremente por eles, co único compromiso de mencionar expresamente a MeteoGalicia e á
#> Consellería de Medio Ambiente, Territorio e Vivenda da Xunta de Galicia como fonte da mesma cada vez
#> que as utilice para os usos distintos do particular e privado.
#> https://www.meteogalicia.gal/web/informacion/notaIndex.action
#> Simple feature collection with 3740 features and 14 fields
#> Geometry type: POINT
#> Dimension:     XY
#> Bounding box:  xmin: -9.184586 ymin: 41.8982 xmax: -6.765224 ymax: 43.734
#> Geodetic CRS:  WGS 84
#> # A tibble: 3,740 × 15
#>    timestamp           service      station_id station_name     station_province altitude temperature min_temperature max_temperature
#>    <dttm>              <chr>        <chr>      <chr>            <chr>                 [m]        [°C]            [°C]            [°C]
#>  1 2023-12-18 15:00:00 meteogalicia 10045      Mabegondo        A Coruña               94       12.1            11.9            12.3 
#>  2 2023-12-18 15:00:00 meteogalicia 10046      Marco da Curra   A Coruña              651        8.37            7.77            8.89
#>  3 2023-12-18 15:00:00 meteogalicia 10047      Pedro Murias     Lugo                   51       11.8            11.5            12.4 
#>  4 2023-12-18 15:00:00 meteogalicia 10048      O Invernadeiro   Ourense              1026       13.1            11.6            14.2 
#>  5 2023-12-18 15:00:00 meteogalicia 10049      Corrubedo        A Coruña               30       11.1            10.9            11.2 
#>  6 2023-12-18 15:00:00 meteogalicia 10050      CIS Ferrol       A Coruña               37       11.8            11.4            12.3 
#>  7 2023-12-18 15:00:00 meteogalicia 10052      Muralla          A Coruña              661        6.5             6.13            6.68
#>  8 2023-12-18 15:00:00 meteogalicia 10053      Campus Lugo      Lugo                  400        6.7             6.54            6.9 
#>  9 2023-12-18 15:00:00 meteogalicia 10055      Guitiriz-Mirador Lugo                  684        9.97            9.54           10.4 
#> 10 2023-12-18 15:00:00 meteogalicia 10056      Marroxo          Lugo                  645        6.63            5.59            7.31
#> # ℹ 3,730 more rows
#> # ℹ 6 more variables: relative_humidity [%], precipitation [L/m^2], wind_direction [°], wind_speed [m/s], insolation [h],
#> #   geometry <POINT [°]>
```

Stations info can be accessed with `get_stations_info_from` function:

``` r
get_stations_info_from('meteogalicia', mg_options)
#> Simple feature collection with 157 features and 5 fields
#> Geometry type: POINT
#> Dimension:     XY
#> Bounding box:  xmin: -9.184586 ymin: 41.8982 xmax: -6.765224 ymax: 43.7383
#> Geodetic CRS:  WGS 84
#> # A tibble: 157 × 6
#>    service      station_id station_name             station_province altitude             geometry
#>  * <chr>        <chr>      <chr>                    <chr>                 [m]          <POINT [°]>
#>  1 meteogalicia 10157      Coruña-Torre de Hércules A Coruña               21 (-8.409202 43.38276)
#>  2 meteogalicia 14000      Coruña-Dique             A Coruña                5 (-8.374706 43.36506)
#>  3 meteogalicia 10045      Mabegondo                A Coruña               94 (-8.262225 43.24137)
#>  4 meteogalicia 14003      Punta Langosteira        A Coruña                5 (-8.531179 43.34723)
#>  5 meteogalicia 10144      Arzúa                    A Coruña              362  (-8.17469 42.93196)
#>  6 meteogalicia 19005      Guísamo                  A Coruña              175 (-8.276487 43.30799)
#>  7 meteogalicia 19012      Cespón                   A Coruña               59 (-8.854571 42.67466)
#>  8 meteogalicia 10095      Sergude                  A Coruña              231 (-8.461246 42.82283)
#>  9 meteogalicia 10800      Camariñas                A Coruña                5 (-9.178318 43.12445)
#> 10 meteogalicia 19001      Rus                      A Coruña              134 (-8.685357 43.15616)
#> # ℹ 147 more rows
```
…
Once a key has been obtained, we can get the meteo:

``` r
get_meteo_from('aemet', aemet_options(api_key = keyring::key_get("aemet")))
#> ℹ © AEMET. Autorizado el uso de la información y su reproducción citando a AEMET como autora de la misma.
#> https://www.aemet.es/es/nota_legal
#> Simple feature collection with 19131 features and 14 fields
#> Geometry type: POINT
#> Dimension:     XY
#> Bounding box:  xmin: -18.115 ymin: 27.66667 xmax: 4.323889 ymax: 43.78621
#> Geodetic CRS:  WGS 84
#> # A tibble: 19,131 × 15
#>    timestamp           service station_id station_name          station_province altitude temperature min_temperature max_temperature
#>    <dttm>              <chr>   <chr>      <chr>                 <chr>                 [m]        [°C]            [°C]            [°C]
#>  1 2023-12-18 15:00:00 aemet   0009X      ALFORJA               <NA>                  406        13.1            12.5            13.1
#>  2 2023-12-18 15:00:00 aemet   0016A      REUS/AEROPUERTO       <NA>                   71        14.5            14.4            15.4
#>  3 2023-12-18 15:00:00 aemet   0034X      VALLS                 <NA>                  233        13.9            13.9            15.3
#>  4 2023-12-18 15:00:00 aemet   0042Y      TARRAGONA  FAC. GEOG… <NA>                   55        16.3            15.8            16.4
#>  5 2023-12-18 15:00:00 aemet   0061X      PONTONS               <NA>                  632        13.4            13.4            14  
#>  6 2023-12-18 15:00:00 aemet   0066X      VILAFRANCA DEL PENED… <NA>                  177        16.1            15.8            16.2
#>  7 2023-12-18 15:00:00 aemet   0073X      SITGES-VALLCARCA      <NA>                   58        10.4            10.4            11.8
#>  8 2023-12-18 15:00:00 aemet   0076       BARCELONA/AEROPUERTO  <NA>                    4        13.9            13.8            14.2
#>  9 2023-12-18 15:00:00 aemet   0092X      BERGA  INSTITUTO      <NA>                  682        15.2            15.2            15.9
#> 10 2023-12-18 15:00:00 aemet   0106X      BALSARENY             <NA>                  361        14.6            14.6            15.1
#> # ℹ 19,121 more rows
#> # ℹ 6 more variables: relative_humidity [%], precipitation [L/m^2], wind_direction [°], wind_speed [m/s], insolation [h],
#> #   geometry <POINT [°]>
```
