…
``` r

## Explore the plots
loire_plots_2015
#> Simple feature collection with 50 features and 15 fields
#> Geometry type: POINT
#> Dimension:     XY
#> Bounding box:  xmin: 3.70236 ymin: 45.27425 xmax: 4.739146 ymax: 46.20189
#> Geodetic CRS:  WGS 84
#> # A tibble: 50 × 16
#>      crs id_unique_code  year plot    coord_sys_orig aspect slope country dep   dep_name visite tree               understory regen   
#>    <dbl> <chr>          <dbl> <chr>   <chr>           <dbl> <int> <chr>   <chr> <chr>     <int> <list>             <list>     <list>  
#>  1  4326 FR_42_1000969   2015 1000969 LAMBERT         342      12 FR      42    Loire         1 <tibble [31 × 10]> <tibble>   <tibble>
#>  2  4326 FR_42_1002527   2015 1002527 LAMBERT         189      36 FR      42    Loire         1 <tibble [22 × 10]> <tibble>   <tibble>
#>  3  4326 FR_42_1002664   2015 1002664 LAMBERT          54      26 FR      42    Loire         1 <tibble [13 × 10]> <tibble>   <tibble>
#>  4  4326 FR_42_1003986   2015 1003986 LAMBERT          47.7    44 FR      42    Loire         1 <tibble [23 × 10]> <tibble>   <tibble>
#>  5  4326 FR_42_1005427   2015 1005427 LAMBERT         153       7 FR      42    Loire         1 <tibble [26 × 10]> <tibble>   <tibble>
#>  6  4326 FR_42_1005981   2015 1005981 LAMBERT         130.     25 FR      42    Loire         1 <tibble [27 × 10]> <tibble>   <tibble>
#>  7  4326 FR_42_1006115   2015 1006115 LAMBERT         270      40 FR      42    Loire         1 <tibble [30 × 10]> <tibble>   <tibble>
#>  8  4326 FR_42_1006386   2015 1006386 LAMBERT         324      22 FR      42    Loire         1 <tibble [14 × 10]> <tibble>   <tibble>
#>  9  4326 FR_42_1006791   2015 1006791 LAMBERT         266.     45 FR      42    Loire         1 <tibble [5 × 10]>  <tibble>   <tibble>
#> 10  4326 FR_42_1006998   2015 1006998 LAMBERT          NA       0 FR      42    Loire         1 <tibble [7 × 10]>  <tibble>   <tibble>
#> # ℹ 40 more rows
#> # ℹ 2 more variables: geometry <POINT [°]>, crs_orig <dbl>
```
